<?xml version="1.0" encoding="UTF-8"?>
<svg width="101px" height="69px" viewBox="0 0 101 69" version="1.1" xmlns="http://www.w3.org/2000/svg" xmlns:xlink="http://www.w3.org/1999/xlink">
    <!-- Generator: Sketch 52.3 (67297) - http://www.bohemiancoding.com/sketch -->
    <title>new-feature-icon</title>
    <desc>Created with Sketch.</desc>
    <g id="Page-1" stroke="none" stroke-width="1" fill="none" fill-rule="evenodd">
        <g id="GitLab-First-Look" transform="translate(-312.000000, -594.000000)">
            <g id="new-feature-icon" transform="translate(313.000000, 594.000000)">
                <path d="M84.2504,55.501 L84.2504,59.501" id="Stroke-1" stroke="#333333" stroke-width="2" stroke-linecap="round" stroke-linejoin="round"></path>
                <path d="M86.2504,57.501 L82.2504,57.501" id="Stroke-2" stroke="#333333" stroke-width="2" stroke-linecap="round" stroke-linejoin="round"></path>
                <polygon id="Fill-3" fill="#E24329" points="49.2563 67.1436 49.2563 67.1436 60.3053 33.5266 38.2083 33.5266"></polygon>
                <polygon id="Fill-4" fill="#FC6D26" points="49.2485 67.1436 38.1995 33.5266 22.7295 33.5266"></polygon>
                <g id="Group-49" transform="translate(0.000000, 0.155400)">
                    <path d="M22.725,33.3828 L19.363,43.5968 C19.058,44.5248 19.387,45.5478 20.191,46.1258 L49.244,66.9998 L22.725,33.3828 Z" id="Fill-5" fill="#FCA326"></path>
                    <path d="M22.7289,33.3828 L38.2109,33.3828 L31.5479,13.1348 C31.2069,12.0988 29.7209,12.0988 29.3679,13.1348 L22.7289,33.3828 Z" id="Fill-7" fill="#E24329"></path>
                    <polygon id="Fill-9" fill="#FC6D26" points="49.2563 66.9882 60.3053 33.3712 75.7873 33.3712"></polygon>
                    <path d="M75.7758,33.3828 L79.1378,43.5968 C79.4428,44.5248 79.1138,45.5478 78.3098,46.1258 L49.2568,66.9878 L75.7758,33.3828 Z" id="Fill-11" fill="#FCA326"></path>
                    <path d="M75.7846,33.3828 L60.3026,33.3828 L66.9526,13.1348 C67.2946,12.0988 68.7796,12.0988 69.1336,13.1348 L75.7846,33.3828 Z" id="Fill-13" fill="#E24329"></path>
                    <polygon id="Stroke-15" stroke="#333333" stroke-width="2" stroke-linecap="round" stroke-linejoin="round" points="49.2563 66.9882 49.2563 66.9882 60.3053 33.3712 38.2083 33.3712"></polygon>
                    <polygon id="Stroke-17" stroke="#333333" stroke-width="2" stroke-linecap="round" stroke-linejoin="round" points="49.2485 66.9882 38.1995 33.3712 22.7295 33.3712"></polygon>
                    <path d="M22.725,33.3828 L19.363,43.5968 C19.058,44.5248 19.387,45.5478 20.191,46.1258 L49.244,66.9998 L22.725,33.3828 Z" id="Stroke-19" stroke="#333333" stroke-width="2" stroke-linecap="round" stroke-linejoin="round"></path>
                    <path d="M22.7289,33.3828 L38.2109,33.3828 L31.5479,13.1348 C31.2069,12.0988 29.7209,12.0988 29.3679,13.1348 L22.7289,33.3828 Z" id="Stroke-21" stroke="#333333" stroke-width="2" stroke-linecap="round" stroke-linejoin="round"></path>
                    <polygon id="Stroke-23" stroke="#333333" stroke-width="2" stroke-linecap="round" stroke-linejoin="round" points="49.2563 66.9882 60.3053 33.3712 75.7873 33.3712"></polygon>
                    <path d="M75.7758,33.3828 L79.1378,43.5968 C79.4428,44.5248 79.1138,45.5478 78.3098,46.1258 L49.2568,66.9878 L75.7758,33.3828 Z" id="Stroke-25" stroke="#333333" stroke-width="2" stroke-linecap="round" stroke-linejoin="round"></path>
                    <path d="M75.7846,33.3828 L60.3026,33.3828 L66.9526,13.1348 C67.2946,12.0988 68.7796,12.0988 69.1336,13.1348 L75.7846,33.3828 Z" id="Stroke-27" stroke="#333333" stroke-width="2" stroke-linecap="round" stroke-linejoin="round"></path>
                    <polygon id="Fill-29" fill="#FCA326" points="88.225 5.3701 92.749 7.8451 88.225 10.3191 85.749 14.8451 83.275 10.3191 78.749 7.8451 83.275 5.3701 85.749 0.8451"></polygon>
                    <polygon id="Stroke-31" stroke="#333333" stroke-width="2" stroke-linecap="round" stroke-linejoin="round" points="88.225 5.3701 92.749 7.8451 88.225 10.3191 85.749 14.8451 83.275 10.3191 78.749 7.8451 83.275 5.3701 85.749 0.8451"></polygon>
                    <polygon id="Fill-33" fill="#FC6D26" points="95.9877 31.1074 98.2507 32.3454 95.9877 33.5834 94.7497 35.8464 93.5117 33.5834 91.2487 32.3454 93.5117 31.1074 94.7497 28.8444"></polygon>
                    <polygon id="Stroke-35" stroke="#333333" stroke-width="2" stroke-linecap="round" stroke-linejoin="round" points="95.9877 31.1074 98.2507 32.3454 95.9877 33.5834 94.7497 35.8464 93.5117 33.5834 91.2487 32.3454 93.5117 31.1074 94.7497 28.8444"></polygon>
                    <path d="M14.0004,55.3456 L14.0004,59.3456" id="Stroke-37" stroke="#333333" stroke-width="2" stroke-linecap="round" stroke-linejoin="round"></path>
                    <path d="M12.0004,57.3456 L16.0004,57.3456" id="Stroke-39" stroke="#333333" stroke-width="2" stroke-linecap="round" stroke-linejoin="round"></path>
                    <polygon id="Fill-41" fill="#FCA326" points="10.0258 5.3701 5.5008 7.8451 10.0258 10.3191 12.5008 14.8451 14.9758 10.3191 19.5008 7.8451 14.9758 5.3701 12.5008 0.8451"></polygon>
                    <polygon id="Stroke-43" stroke="#333333" stroke-width="2" stroke-linecap="round" stroke-linejoin="round" points="10.0258 5.3701 5.5008 7.8451 10.0258 10.3191 12.5008 14.8451 14.9758 10.3191 19.5008 7.8451 14.9758 5.3701 12.5008 0.8451"></polygon>
                    <polygon id="Fill-45" fill="#FC6D26" points="2.2631 31.1074 0.0001 32.3454 2.2631 33.5834 3.5001 35.8464 4.7391 33.5834 7.0011 32.3454 4.7391 31.1074 3.5001 28.8444"></polygon>
                    <polygon id="Stroke-47" stroke="#333333" stroke-width="2" stroke-linecap="round" stroke-linejoin="round" points="2.2631 31.1074 0.0001 32.3454 2.2631 33.5834 3.5001 35.8464 4.7391 33.5834 7.0011 32.3454 4.7391 31.1074 3.5001 28.8444"></polygon>
                </g>
            </g>
        </g>
    </g>
</svg>